Name Matching between IPSA and data.parliament
…
commons$ipsa_match <- commons$commons_short %in% mps_ipsa_commons$commons_short

Now we manually inspect the data expecting that all entries should be Ex MPs who left the commons before IPSA records started in May 2010.

commons %>% 
  dplyr::filter(ipsa_match == FALSE) %>% View()

An easy way to do this is to filter to those cases where the ipsa match is FALSE and arrange by the temp_end date. Any temp end data that is current requires investigation.

commons %>% 
  dplyr::filter(ipsa_match == FALSE) %>%
  arrange(desc(temp_end)) %>% 
  select(temp_end, display_as, commons_short)
#> # A tibble: 202 x 3
#>    temp_end   display_as         commons_short   
#>    <date>     <chr>              <chr>           
#>  1 2018-06-01 Órfhlaith Begley   Órfhlaith Begley
#>  2 2018-06-01 Janet Daby         Janet Daby      
#>  3 2010-05-06 Nick Ainger        Nick Ainger     
#>  4 2010-05-06 Mr Peter Ainsworth Peter Ainsworth 
#>  5 2010-05-06 Janet Anderson     Janet Anderson  
#>  6 2010-05-06 Hilary Armstrong   Hilary Armstrong
#>  7 2010-05-06 Charlotte Atkins   Charlotte Atkins
#>  8 2010-05-06 Mr Peter Atkinson  Peter Atkinson  
#>  9 2010-05-06 John Austin        John Austin     
#> 10 2010-05-06 Vera Baird         Vera Baird      
#> # ... with 192 more rows
…
