Exploring Pooled Services
…
erg <- erg %>%
  dplyr::filter(claim_no != "365591") %>% 
  dplyr::filter(id != "1323443") %>% 
  mutate(subscription_count = rep_len(1, length.out = nrow(.)))

We are now in a position to count the number of subscriptions over time and to sum the value of subscriptions.

erg_subscriptions <- erg %>% 
  group_by(member_id, ipsa_name, dp_name, current_role, mps_constituency) %>%
  summarise_at(c("subscription_count", "amount_claimed"), sum) %>% 
  arrange(desc(subscription_count))

erg_subscriptions %>%
  select(member_id, ipsa_name, dp_name, current_role, subscription_count, amount_claimed)
#> # A tibble: 53 x 6
#> # Groups:   member_id, ipsa_name, dp_name, current_role [53]
#>    member_id ipsa_name       dp_name        current_role subscription_cou…
#>    <chr>     <chr>           <chr>          <chr>                    <dbl>
#>  1 1444      Mark Francois   Mr Mark Franc… MP                           8
#>  2 4133      Andrew Bridgen  Andrew Bridgen MP                           8
#>  3 47        Gerald Howarth  Sir Gerald Ho… Ex                           8
#>  4 3977      Chris Heaton-H… Chris Heaton-… MP                           7
#>  5 40        Bernard Jenkin  Sir Bernard J… MP                           7
#>  6 4140      David Nuttall   Mr David Nutt… Ex                           7
#>  7 4064      Steve Baker     Mr Steve Baker MP                           6
#>  8 4075      Chris Pincher   Christopher P… MP                           6
#>  9 4099      Jacob Rees-Mogg Mr Jacob Rees… MP                           6
#> 10 1551      Stewart Jackson Mr Stewart Ja… Ex                           5
#> # ... with 43 more rows, and 1 more variable: amount_claimed <dbl>
…
