Name Matching between IPSA and data.parliament
…
So, that has successfully mapped the 949 MP names in IPSA into mnis.

Next we simply use the member_id in the result to identify those MPs who are in IPSA and those who are outside. We can then review why they are not present in IPSA (they should all have a house end date before the start of the IPSA records on May the 7th 2010).

commons <- commons %>% 
  mutate(ipsa_match = commons$member_id %in% results$member_id)

Take a quick look to using the current status field.

commons %>% 
  dplyr::filter(ipsa_match == "FALSE") %>%
  arrange(desc(current_status_is_active)) %>% 
  select(display_as, current_status_is_active)
#> # A tibble: 201 x 2
#>    display_as        current_status_is_active
#>    <chr>             <chr>                   
#>  1 Chris Hazzard     True                    
#>  2 Mr Adam Ingram    False                   
#>  3 Adam Price        False                   
#>  4 Mr Alan Milburn   False                   
#>  5 Alan Simpson      False                   
#>  6 Mr Alan Williams  False                   
#>  7 Alan Wright       False                   
#>  8 Mr Andrew Dismore False                   
#>  9 Mr Andrew Mackay  False                   
#> 10 Andrew Mackinlay  False                   
#> # ... with 191 more rows
…
