Exploring Pooled Services
…
IPSA has produced an an assessment of pooled services Assurance Review: Pooled Services, Assessment of risks, controls and compliance, 2015-2016 that was last updated in 2017.

MPs pay for these services through subscription fees that are then reclaimed as expenses. At present the package does not compile this data. Initial exploration of the data reveals that the descriptions of these services varies and affects our ability to accurately capture expenses claims. We can however get an initial idea of what might be involved by simply searching for research in the data and seeking to capture variants:

#> 
#> Attaching package: 'ipsar'
#> The following object is masked _by_ '.GlobalEnv':
#> 
#>     ipsa_commons

library(tidyverse)
ipsa$research <- str_detect(ipsa$short_description, " Research*")
ipsa %>% dplyr::filter(research == "TRUE") %>% 
  select(expense_type, short_description, details)
#> # A tibble: 450 x 3
#>    expense_type                   short_description              details  
#>    <chr>                          <chr>                          <chr>    
#>  1 Professional Services (Staff.) Payment for Research Work      Research…
#>  2 Pooled Staffing Services       Pooled Research Services       PRU invo…
#>  3 Public Tr RAIL MP Staff - SGL  Const Researcher travel  train HP train…
#>  4 Professional Services (Staff.) Payment for Research Work      Research…
#>  5 Professional Services (Staff.) Senior Researcher July         [***]  J…
#>  6 Pooled Staffing Services       European Research Group        European…
#>  7 Pooled Staffing Services       European Research Group        ERG Pool…
#>  8 Pooled Staffing Services       European Research Group        Part pay…
#>  9 Professional Services (Staff.) Payment for Research Work      Invoice …
#> 10 Recruitment Services           Advert Researcher / Case       Job Adve…
#> # ... with 440 more rows
…
erg <- erg %>%
  dplyr::filter(claim_no != "365591") %>% 
  dplyr::filter(id != "1323443") %>% 
  mutate(subscription_count = rep_len(1, length.out = nrow(.)))

We are now in a position to count the number of subscriptions over time and to sum the value of subscriptions.

erg_subscriptions <- erg %>% 
  group_by(member_id, mps_name, display_as, current_role, mps_constituency) %>%
  summarise_at(c("subscription_count", "amount_claimed"), sum) %>% 
  arrange(desc(subscription_count))

erg_subscriptions %>%
  select(member_id, mps_name, display_as, current_role, subscription_count, amount_claimed)
#> # A tibble: 53 x 6
#> # Groups:   member_id, mps_name, display_as, current_role [53]
#>    member_id mps_name       display_as      current_role subscription_cou…
#>    <chr>     <chr>          <chr>           <chr>                    <dbl>
#>  1 1444      Mark Francois  Mr Mark Franco… MP                          8.
#>  2 4133      Andrew Bridgen Andrew Bridgen  MP                          8.
#>  3 47        Gerald Howarth Sir Gerald How… Ex                          8.
#>  4 3977      Chris Heaton-… Chris Heaton-H… MP                          7.
#>  5 40        Bernard Jenkin Mr Bernard Jen… MP                          7.
#>  6 4140      David Nuttall  Mr David Nutta… Ex                          7.
#>  7 4064      Steve Baker    Mr Steve Baker  MP                          6.
#>  8 4075      Chris Pincher  Christopher Pi… MP                          6.
#>  9 4099      Jacob Rees-Mo… Mr Jacob Rees-… MP                          6.
#> 10 1551      Stewart Jacks… Mr Stewart Jac… Ex                          5.
#> # ... with 43 more rows, and 1 more variable: amount_claimed <dbl>
…
